Animals: Data Summaries • biodivercity
…
Next, define the unique combinations of the grouping variables of
interest. These will be used to summarise the data. For example, animal
surveys can be summarised for each of the six towns (column
area), two survey periods (column period), as
well as four animal groups (column taxon):

unique <- animal_surveys %>%
  distinct(area, period, taxon) %>% 
  arrange(area)

unique

## # A tibble: 40 × 3
##    area  period taxon      
##    <chr>  <dbl> <chr>      
##  1 BS         1 Odonata    
##  2 BS         1 Lepidoptera
##  3 BS         1 Aves       
##  4 BS         1 Amphibia   
##  5 JW         1 Aves       
##  6 JW         1 Lepidoptera
##  7 JW         1 Odonata    
##  8 JW         1 Amphibia   
##  9 JW         2 Aves       
## 10 JW         2 Lepidoptera
## # … with 30 more rows
…
The resulting dataframe n_refer allows direct
comparisons to be made between the different areas/periods, based on the
estimated number of species (column richness):

n_refer

## # A tibble: 40 × 6
##    taxon sites area  period richness    sd
##    <fct> <int> <fct>  <dbl>    <dbl> <dbl>
##  1 Aves     84 BS         1     62    2.66
##  2 Aves     84 JW         1     59.1  4.19
##  3 Aves     84 JW         2     58.5  4.50
##  4 Aves     84 PG         1     69.1  5.04
##  5 Aves     84 PG         2     70.6  4.04
##  6 Aves     84 QT         1     76.4  3.46
##  7 Aves     84 QT         2     66.6  3.90
##  8 Aves     84 TP         1     68.6  4.24
##  9 Aves     84 TP         2     63.9  4.87
## 10 Aves     84 WL         1     62.6  4.70
## # … with 30 more rows
…
