Animals: Species-level Analyses • biodivercity
…
Prepare data

Load the example data. Refer to help(animal_observations) and help(animal_surveys) for more details on these datasets.

data("animal_observations")
data("animal_surveys")

Show group-level (family/genus) observations where all species in the group are observed at each sampling point. These entries present will later be removed at the respective points, in order to prevent over-counting the number of species. More details in the vignette Process animal data.

remove <- check_taxongrps(animal_observations, level = "point")
remove

## # A tibble: 7,199 × 4
## # Groups:   point_id, period [279]
##    point_id period name                 n
##    <chr>     <dbl> <chr>            <int>
##  1 BSa11a_P      1 Aegithina spp.       1
##  2 BSa11a_P      1 Agriocnemis spp.     1
##  3 BSa11a_P      1 Amaurornis spp.      1
##  4 BSa11a_P      1 Ampittia spp.        1
##  5 BSa11a_P      1 Aplonis spp.         1
##  6 BSa11a_P      1 Appias spp.          1
##  7 BSa11a_P      1 Bubulcus spp.        1
##  8 BSa11a_P      1 Butorides spp.       1
##  9 BSa11a_P      1 Cephrenes spp.       1
## 10 BSa11a_P      1 Cinnyris spp.        1
## # … with 7,189 more rows
…
