Simulate multiple scenarios with animal surveys randomly excluded — exclude_simulator • biodivercity
…
# convert animal observations to community matrix
birds <- as.data.frame.matrix(xtabs(abundance ~ survey_id + species, data = birds))
birds <- cbind(survey_id = rownames(birds), birds) # convert rownames to col

# run function
set.seed(123)
exclude_simulator(birds, animal_surveys,
                 exclude_num = 15, exclude_level = "survey", # exclude 15 surveys
                 specify_cycles = 5, # exclude those in cycle 5 only
                 period_ignore = "2", # remove all data from period 2
                 rep = 10) # 10 scenarios only
#> # A tibble: 138 × 12
#>    species     full iter1 iter2 iter3 iter4 iter5 iter6 iter7 iter8 iter9 iter10
#>    <chr>      <int> <int> <int> <int> <int> <int> <int> <int> <int> <int>  <int>
#>  1 Accipiter…     1     1     1     1     1     1     1     1     1     1      1
#>  2 Accipitri…     1     1     1     1     1     1     1     1     1     1      1
#>  3 Acridothe…   157   157   157   157   157   157   157   157   157   157    157
#>  4 Acridothe…    52    51    51    52    52    52    52    52    52    52     51
#>  5 Acrocepha…     1     1     1     1     1     1     1     1     1     1      1
#>  6 Acrocepha…     1     1     1     1     1     1     1     1     1     1      1
#>  7 Actitis h…     4     4     4     4     4     4     4     4     4     4      4
#>  8 Aegithina…    68    67    67    68    68    67    67    66    67    67     67
#>  9 Aerodramu…     1     1     1     1     1     1     1     1     1     1      1
#> 10 Aerodramu…     1     1     1     1     1     1     1     1     1     1      1
#> # … with 128 more rows
…
