Filter animal observations based on specified criteria — filter_observations • biodivercity
…
    Value

    The dataframe observations subset according to the specified criteria.

    Examples

data(animal_observations)
data(animal_surveys)

# filter to birds in both periods 1 and 2
filter_observations(observations = animal_observations,
                    survey_ref = animal_surveys,
                    specify_taxon = "Aves",
                    specify_period = c("1","2"))
#> # A tibble: 28,571 × 13
#>    survey_id      point_id area  period cycle resampled start_time         
#>    <fct>          <fct>    <chr>  <dbl> <dbl> <lgl>     <dttm>             
#>  1 1 PGT15 1 Aves PGT15    PG         1     1 NA        2016-08-08 07:00:00
#>  2 1 PGT15 1 Aves PGT15    PG         1     1 NA        2016-08-08 07:00:00
#>  3 1 PGT15 1 Aves PGT15    PG         1     1 NA        2016-08-08 07:00:00
#>  4 1 PGT15 1 Aves PGT15    PG         1     1 NA        2016-08-08 07:00:00
#>  5 1 PGT15 1 Aves PGT15    PG         1     1 NA        2016-08-08 07:00:00
#>  6 1 PGT15 1 Aves PGT15    PG         1     1 NA        2016-08-08 07:00:00
#>  7 1 PGT15 1 Aves PGT15    PG         1     1 NA        2016-08-08 07:00:00
#>  8 1 PGT15 1 Aves PGT15    PG         1     1 NA        2016-08-08 07:00:00
#>  9 1 PGT15 1 Aves PGT15    PG         1     1 NA        2016-08-08 07:00:00
#> 10 1 PGT15 1 Aves PGT15    PG         1     1 NA        2016-08-08 07:00:00
#> # … with 28,561 more rows, and 6 more variables: time <dttm>, taxon <chr>,
#> #   species <chr>, family <chr>, genus <chr>, abundance <dbl>
…
